Data Manipulation with R
…
### Dataset 2: Q4, slice()
.panel1-q4b-auto[

```r
# Solution
visits %>%
    arrange(SUBJIDN, VISITDT) %>%
*   group_by(SUBJIDN)
```
]
 
.panel2-q4b-auto[

```
# A tibble: 30 x 2
# Groups:   SUBJIDN [9]
   SUBJIDN VISITDT   
     <int> <date>    
 1       1 2019-12-23
 2       1 2020-04-14
 3       2 2019-12-28
 4       2 2020-01-05
 5       2 2020-05-27
 6       2 2020-10-21
 7       3 2020-01-14
 8       3 2020-07-02
 9       4 2020-01-19
10       4 2020-04-11
# ... with 20 more rows
```
…
